<?xml version="1.0" encoding="UTF-8" standalone="no"?>
<!-- Created with Inkscape (http://www.inkscape.org/) -->

<svg
   xmlns:dc="http://purl.org/dc/elements/1.1/"
   xmlns:cc="http://creativecommons.org/ns#"
   xmlns:rdf="http://www.w3.org/1999/02/22-rdf-syntax-ns#"
   xmlns:svg="http://www.w3.org/2000/svg"
   xmlns="http://www.w3.org/2000/svg"
   xmlns:xlink="http://www.w3.org/1999/xlink"
   xmlns:sodipodi="http://sodipodi.sourceforge.net/DTD/sodipodi-0.dtd"
   xmlns:inkscape="http://www.inkscape.org/namespaces/inkscape"
   width="192.05632mm"
   height="91.851898mm"
   viewBox="0 0 680.51453 325.45948"
   id="svg4411"
   version="1.1"
   inkscape:version="0.91 r13725"
   sodipodi:docname="mpi_eval-distributed-memory.svg"
   inkscape:export-filename="/home/dabi/VC-Projects/Software/Mine/Current/transport-maps/Docs/source/Figures/mpi_eval-distributed-memory.png"
   inkscape:export-xdpi="101.61"
   inkscape:export-ydpi="101.61">
  <defs
     id="defs4413">
    <marker
       inkscape:stockid="Arrow1Mend"
       orient="auto"
       refY="0"
       refX="0"
       id="marker11284"
       style="overflow:visible"
       inkscape:isstock="true">
      <path
         id="path11286"
         d="M 0,0 5,-5 -12.5,0 5,5 0,0 Z"
         style="fill:#000000;fill-opacity:1;fill-rule:evenodd;stroke:#000000;stroke-width:1pt;stroke-opacity:1"
         transform="matrix(-0.4,0,0,-0.4,-4,0)"
         inkscape:connector-curvature="0" />
    </marker>
    <marker
       inkscape:isstock="true"
       style="overflow:visible"
       id="marker10862"
       refX="0"
       refY="0"
       orient="auto"
       inkscape:stockid="Arrow1Mend"
       inkscape:collect="always">
      <path
         transform="matrix(-0.4,0,0,-0.4,-4,0)"
         style="fill:#000000;fill-opacity:1;fill-rule:evenodd;stroke:#000000;stroke-width:1pt;stroke-opacity:1"
         d="M 0,0 5,-5 -12.5,0 5,5 0,0 Z"
         id="path10864"
         inkscape:connector-curvature="0" />
    </marker>
    <marker
       inkscape:stockid="DotM"
       orient="auto"
       refY="0"
       refX="0"
       id="marker10598"
       style="overflow:visible"
       inkscape:isstock="true">
      <path
         id="path10600"
         d="m -2.5,-1 c 0,2.76 -2.24,5 -5,5 -2.76,0 -5,-2.24 -5,-5 0,-2.76 2.24,-5 5,-5 2.76,0 5,2.24 5,5 z"
         style="fill:#000000;fill-opacity:1;fill-rule:evenodd;stroke:#000000;stroke-width:1pt;stroke-opacity:1"
         transform="matrix(0.4,0,0,0.4,2.96,0.4)"
         inkscape:connector-curvature="0" />
    </marker>
    <marker
       inkscape:stockid="DotM"
       orient="auto"
       refY="0"
       refX="0"
       id="marker10372"
       style="overflow:visible"
       inkscape:isstock="true">
      <path
         id="path10374"
         d="m -2.5,-1 c 0,2.76 -2.24,5 -5,5 -2.76,0 -5,-2.24 -5,-5 0,-2.76 2.24,-5 5,-5 2.76,0 5,2.24 5,5 z"
         style="fill:#000000;fill-opacity:1;fill-rule:evenodd;stroke:#000000;stroke-width:1pt;stroke-opacity:1"
         transform="matrix(0.4,0,0,0.4,2.96,0.4)"
         inkscape:connector-curvature="0" />
    </marker>
    <marker
       inkscape:stockid="DotM"
       orient="auto"
       refY="0"
       refX="0"
       id="marker10152"
       style="overflow:visible"
       inkscape:isstock="true">
      <path
         id="path10154"
         d="m -2.5,-1 c 0,2.76 -2.24,5 -5,5 -2.76,0 -5,-2.24 -5,-5 0,-2.76 2.24,-5 5,-5 2.76,0 5,2.24 5,5 z"
         style="fill:#000000;fill-opacity:1;fill-rule:evenodd;stroke:#000000;stroke-width:1pt;stroke-opacity:1"
         transform="matrix(0.4,0,0,0.4,2.96,0.4)"
         inkscape:connector-curvature="0" />
    </marker>
    <marker
       inkscape:stockid="DotM"
       orient="auto"
       refY="0"
       refX="0"
       id="marker9938"
       style="overflow:visible"
       inkscape:isstock="true">
      <path
         id="path9940"
         d="m -2.5,-1 c 0,2.76 -2.24,5 -5,5 -2.76,0 -5,-2.24 -5,-5 0,-2.76 2.24,-5 5,-5 2.76,0 5,2.24 5,5 z"
         style="fill:#000000;fill-opacity:1;fill-rule:evenodd;stroke:#000000;stroke-width:1pt;stroke-opacity:1"
         transform="matrix(0.4,0,0,0.4,2.96,0.4)"
         inkscape:connector-curvature="0" />
    </marker>
    <marker
       inkscape:stockid="DotM"
       orient="auto"
       refY="0"
       refX="0"
       id="marker9730"
       style="overflow:visible"
       inkscape:isstock="true">
      <path
         id="path9732"
         d="m -2.5,-1 c 0,2.76 -2.24,5 -5,5 -2.76,0 -5,-2.24 -5,-5 0,-2.76 2.24,-5 5,-5 2.76,0 5,2.24 5,5 z"
         style="fill:#000000;fill-opacity:1;fill-rule:evenodd;stroke:#000000;stroke-width:1pt;stroke-opacity:1"
         transform="matrix(0.4,0,0,0.4,2.96,0.4)"
         inkscape:connector-curvature="0" />
    </marker>
    <marker
       inkscape:stockid="DotM"
       orient="auto"
       refY="0"
       refX="0"
       id="marker9528"
       style="overflow:visible"
       inkscape:isstock="true">
      <path
         id="path9530"
         d="m -2.5,-1 c 0,2.76 -2.24,5 -5,5 -2.76,0 -5,-2.24 -5,-5 0,-2.76 2.24,-5 5,-5 2.76,0 5,2.24 5,5 z"
         style="fill:#000000;fill-opacity:1;fill-rule:evenodd;stroke:#000000;stroke-width:1pt;stroke-opacity:1"
         transform="matrix(0.4,0,0,0.4,2.96,0.4)"
         inkscape:connector-curvature="0" />
    </marker>
    <marker
       inkscape:stockid="DotM"
       orient="auto"
       refY="0"
       refX="0"
       id="marker9332"
       style="overflow:visible"
       inkscape:isstock="true">
      <path
         id="path9334"
         d="m -2.5,-1 c 0,2.76 -2.24,5 -5,5 -2.76,0 -5,-2.24 -5,-5 0,-2.76 2.24,-5 5,-5 2.76,0 5,2.24 5,5 z"
         style="fill:#000000;fill-opacity:1;fill-rule:evenodd;stroke:#000000;stroke-width:1pt;stroke-opacity:1"
         transform="matrix(0.4,0,0,0.4,2.96,0.4)"
         inkscape:connector-curvature="0" />
    </marker>
    <marker
       inkscape:stockid="DotM"
       orient="auto"
       refY="0"
       refX="0"
       id="marker9142"
       style="overflow:visible"
       inkscape:isstock="true">
      <path
         id="path9144"
         d="m -2.5,-1 c 0,2.76 -2.24,5 -5,5 -2.76,0 -5,-2.24 -5,-5 0,-2.76 2.24,-5 5,-5 2.76,0 5,2.24 5,5 z"
         style="fill:#000000;fill-opacity:1;fill-rule:evenodd;stroke:#000000;stroke-width:1pt;stroke-opacity:1"
         transform="matrix(0.4,0,0,0.4,2.96,0.4)"
         inkscape:connector-curvature="0" />
    </marker>
    <marker
       inkscape:stockid="Arrow1Mend"
       orient="auto"
       refY="0"
       refX="0"
       id="marker8946"
       style="overflow:visible"
       inkscape:isstock="true"
       inkscape:collect="always">
      <path
         id="path8948"
         d="M 0,0 5,-5 -12.5,0 5,5 0,0 Z"
         style="fill:#000000;fill-opacity:1;fill-rule:evenodd;stroke:#000000;stroke-width:1pt;stroke-opacity:1"
         transform="matrix(-0.4,0,0,-0.4,-4,0)"
         inkscape:connector-curvature="0" />
    </marker>
    <marker
       inkscape:stockid="Arrow1Mend"
       orient="auto"
       refY="0"
       refX="0"
       id="marker8768"
       style="overflow:visible"
       inkscape:isstock="true">
      <path
         id="path8770"
         d="M 0,0 5,-5 -12.5,0 5,5 0,0 Z"
         style="fill:#000000;fill-opacity:1;fill-rule:evenodd;stroke:#000000;stroke-width:1pt;stroke-opacity:1"
         transform="matrix(-0.4,0,0,-0.4,-4,0)"
         inkscape:connector-curvature="0" />
    </marker>
    <marker
       inkscape:stockid="Arrow1Mend"
       orient="auto"
       refY="0"
       refX="0"
       id="marker8596"
       style="overflow:visible"
       inkscape:isstock="true">
      <path
         id="path8598"
         d="M 0,0 5,-5 -12.5,0 5,5 0,0 Z"
         style="fill:#000000;fill-opacity:1;fill-rule:evenodd;stroke:#000000;stroke-width:1pt;stroke-opacity:1"
         transform="matrix(-0.4,0,0,-0.4,-4,0)"
         inkscape:connector-curvature="0" />
    </marker>
    <marker
       inkscape:stockid="Arrow1Mend"
       orient="auto"
       refY="0"
       refX="0"
       id="marker8430"
       style="overflow:visible"
       inkscape:isstock="true">
      <path
         id="path8432"
         d="M 0,0 5,-5 -12.5,0 5,5 0,0 Z"
         style="fill:#000000;fill-opacity:1;fill-rule:evenodd;stroke:#000000;stroke-width:1pt;stroke-opacity:1"
         transform="matrix(-0.4,0,0,-0.4,-4,0)"
         inkscape:connector-curvature="0" />
    </marker>
    <marker
       inkscape:stockid="Arrow1Mend"
       orient="auto"
       refY="0"
       refX="0"
       id="marker8270"
       style="overflow:visible"
       inkscape:isstock="true">
      <path
         id="path8272"
         d="M 0,0 5,-5 -12.5,0 5,5 0,0 Z"
         style="fill:#000000;fill-opacity:1;fill-rule:evenodd;stroke:#000000;stroke-width:1pt;stroke-opacity:1"
         transform="matrix(-0.4,0,0,-0.4,-4,0)"
         inkscape:connector-curvature="0" />
    </marker>
    <marker
       inkscape:stockid="Arrow1Mend"
       orient="auto"
       refY="0"
       refX="0"
       id="marker8116"
       style="overflow:visible"
       inkscape:isstock="true">
      <path
         id="path8118"
         d="M 0,0 5,-5 -12.5,0 5,5 0,0 Z"
         style="fill:#000000;fill-opacity:1;fill-rule:evenodd;stroke:#000000;stroke-width:1pt;stroke-opacity:1"
         transform="matrix(-0.4,0,0,-0.4,-4,0)"
         inkscape:connector-curvature="0" />
    </marker>
    <marker
       inkscape:isstock="true"
       style="overflow:visible"
       id="marker7701"
       refX="0"
       refY="0"
       orient="auto"
       inkscape:stockid="DotM"
       inkscape:collect="always">
      <path
         transform="matrix(0.4,0,0,0.4,2.96,0.4)"
         style="fill:#000000;fill-opacity:1;fill-rule:evenodd;stroke:#000000;stroke-width:1pt;stroke-opacity:1"
         d="m -2.5,-1 c 0,2.76 -2.24,5 -5,5 -2.76,0 -5,-2.24 -5,-5 0,-2.76 2.24,-5 5,-5 2.76,0 5,2.24 5,5 z"
         id="path7703"
         inkscape:connector-curvature="0" />
    </marker>
    <marker
       inkscape:isstock="true"
       style="overflow:visible"
       id="marker7559"
       refX="0"
       refY="0"
       orient="auto"
       inkscape:stockid="DotM">
      <path
         transform="matrix(0.4,0,0,0.4,2.96,0.4)"
         style="fill:#000000;fill-opacity:1;fill-rule:evenodd;stroke:#000000;stroke-width:1pt;stroke-opacity:1"
         d="m -2.5,-1 c 0,2.76 -2.24,5 -5,5 -2.76,0 -5,-2.24 -5,-5 0,-2.76 2.24,-5 5,-5 2.76,0 5,2.24 5,5 z"
         id="path7561"
         inkscape:connector-curvature="0" />
    </marker>
    <marker
       inkscape:isstock="true"
       style="overflow:visible"
       id="marker7423"
       refX="0"
       refY="0"
       orient="auto"
       inkscape:stockid="DotM">
      <path
         transform="matrix(0.4,0,0,0.4,2.96,0.4)"
         style="fill:#000000;fill-opacity:1;fill-rule:evenodd;stroke:#000000;stroke-width:1pt;stroke-opacity:1"
         d="m -2.5,-1 c 0,2.76 -2.24,5 -5,5 -2.76,0 -5,-2.24 -5,-5 0,-2.76 2.24,-5 5,-5 2.76,0 5,2.24 5,5 z"
         id="path7425"
         inkscape:connector-curvature="0" />
    </marker>
    <marker
       inkscape:isstock="true"
       style="overflow:visible"
       id="marker7293"
       refX="0"
       refY="0"
       orient="auto"
       inkscape:stockid="DotM">
      <path
         transform="matrix(0.4,0,0,0.4,2.96,0.4)"
         style="fill:#000000;fill-opacity:1;fill-rule:evenodd;stroke:#000000;stroke-width:1pt;stroke-opacity:1"
         d="m -2.5,-1 c 0,2.76 -2.24,5 -5,5 -2.76,0 -5,-2.24 -5,-5 0,-2.76 2.24,-5 5,-5 2.76,0 5,2.24 5,5 z"
         id="path7295"
         inkscape:connector-curvature="0" />
    </marker>
    <marker
       inkscape:isstock="true"
       style="overflow:visible"
       id="marker7169"
       refX="0"
       refY="0"
       orient="auto"
       inkscape:stockid="DotM">
      <path
         transform="matrix(0.4,0,0,0.4,2.96,0.4)"
         style="fill:#000000;fill-opacity:1;fill-rule:evenodd;stroke:#000000;stroke-width:1pt;stroke-opacity:1"
         d="m -2.5,-1 c 0,2.76 -2.24,5 -5,5 -2.76,0 -5,-2.24 -5,-5 0,-2.76 2.24,-5 5,-5 2.76,0 5,2.24 5,5 z"
         id="path7171"
         inkscape:connector-curvature="0" />
    </marker>
    <marker
       inkscape:stockid="DotM"
       orient="auto"
       refY="0"
       refX="0"
       id="DotM"
       style="overflow:visible"
       inkscape:isstock="true"
       inkscape:collect="always">
      <path
         id="path5925"
         d="m -2.5,-1 c 0,2.76 -2.24,5 -5,5 -2.76,0 -5,-2.24 -5,-5 0,-2.76 2.24,-5 5,-5 2.76,0 5,2.24 5,5 z"
         style="fill:#000000;fill-opacity:1;fill-rule:evenodd;stroke:#000000;stroke-width:1pt;stroke-opacity:1"
         transform="matrix(0.4,0,0,0.4,2.96,0.4)"
         inkscape:connector-curvature="0" />
    </marker>
    <marker
       inkscape:isstock="true"
       style="overflow:visible"
       id="marker6927"
       refX="0"
       refY="0"
       orient="auto"
       inkscape:stockid="Arrow1Mend"
       inkscape:collect="always">
      <path
         transform="matrix(-0.4,0,0,-0.4,-4,0)"
         style="fill:#000000;fill-opacity:1;fill-rule:evenodd;stroke:#000000;stroke-width:1pt;stroke-opacity:1"
         d="M 0,0 5,-5 -12.5,0 5,5 0,0 Z"
         id="path6929"
         inkscape:connector-curvature="0" />
    </marker>
    <marker
       inkscape:isstock="true"
       style="overflow:visible"
       id="marker6821"
       refX="0"
       refY="0"
       orient="auto"
       inkscape:stockid="Arrow1Mend">
      <path
         transform="matrix(-0.4,0,0,-0.4,-4,0)"
         style="fill:#000000;fill-opacity:1;fill-rule:evenodd;stroke:#000000;stroke-width:1pt;stroke-opacity:1"
         d="M 0,0 5,-5 -12.5,0 5,5 0,0 Z"
         id="path6823"
         inkscape:connector-curvature="0" />
    </marker>
    <marker
       inkscape:isstock="true"
       style="overflow:visible"
       id="marker6721"
       refX="0"
       refY="0"
       orient="auto"
       inkscape:stockid="Arrow1Mend">
      <path
         transform="matrix(-0.4,0,0,-0.4,-4,0)"
         style="fill:#000000;fill-opacity:1;fill-rule:evenodd;stroke:#000000;stroke-width:1pt;stroke-opacity:1"
         d="M 0,0 5,-5 -12.5,0 5,5 0,0 Z"
         id="path6723"
         inkscape:connector-curvature="0" />
    </marker>
    <marker
       inkscape:stockid="Arrow1Mend"
       orient="auto"
       refY="0"
       refX="0"
       id="marker6621"
       style="overflow:visible"
       inkscape:isstock="true"
       inkscape:collect="always">
      <path
         id="path6623"
         d="M 0,0 5,-5 -12.5,0 5,5 0,0 Z"
         style="fill:#000000;fill-opacity:1;fill-rule:evenodd;stroke:#000000;stroke-width:1pt;stroke-opacity:1"
         transform="matrix(-0.4,0,0,-0.4,-4,0)"
         inkscape:connector-curvature="0" />
    </marker>
    <marker
       inkscape:stockid="Arrow1Mend"
       orient="auto"
       refY="0"
       refX="0"
       id="Arrow1Mend"
       style="overflow:visible"
       inkscape:isstock="true">
      <path
         id="path5870"
         d="M 0,0 5,-5 -12.5,0 5,5 0,0 Z"
         style="fill:#000000;fill-opacity:1;fill-rule:evenodd;stroke:#000000;stroke-width:1pt;stroke-opacity:1"
         transform="matrix(-0.4,0,0,-0.4,-4,0)"
         inkscape:connector-curvature="0" />
    </marker>
    <marker
       inkscape:stockid="DotM"
       orient="auto"
       refY="0"
       refX="0"
       id="marker9893"
       style="overflow:visible"
       inkscape:isstock="true">
      <path
         id="path9895"
         d="m -2.5,-1 c 0,2.76 -2.24,5 -5,5 -2.76,0 -5,-2.24 -5,-5 0,-2.76 2.24,-5 5,-5 2.76,0 5,2.24 5,5 z"
         style="fill:#000000;fill-opacity:1;fill-rule:evenodd;stroke:#000000;stroke-width:1pt;stroke-opacity:1"
         transform="matrix(0.4,0,0,0.4,2.96,0.4)"
         inkscape:connector-curvature="0" />
    </marker>
    <marker
       inkscape:isstock="true"
       style="overflow:visible"
       id="marker9163"
       refX="0"
       refY="0"
       orient="auto"
       inkscape:stockid="DotM">
      <path
         inkscape:connector-curvature="0"
         transform="matrix(0.4,0,0,0.4,2.96,0.4)"
         style="fill:#000000;fill-opacity:1;fill-rule:evenodd;stroke:#000000;stroke-width:1pt;stroke-opacity:1"
         d="m -2.5,-1 c 0,2.76 -2.24,5 -5,5 -2.76,0 -5,-2.24 -5,-5 0,-2.76 2.24,-5 5,-5 2.76,0 5,2.24 5,5 z"
         id="path9165" />
    </marker>
    <marker
       inkscape:isstock="true"
       style="overflow:visible"
       id="marker9245"
       refX="0"
       refY="0"
       orient="auto"
       inkscape:stockid="DotM">
      <path
         inkscape:connector-curvature="0"
         transform="matrix(0.4,0,0,0.4,2.96,0.4)"
         style="fill:#000000;fill-opacity:1;fill-rule:evenodd;stroke:#000000;stroke-width:1pt;stroke-opacity:1"
         d="m -2.5,-1 c 0,2.76 -2.24,5 -5,5 -2.76,0 -5,-2.24 -5,-5 0,-2.76 2.24,-5 5,-5 2.76,0 5,2.24 5,5 z"
         id="path9247" />
    </marker>
    <marker
       inkscape:isstock="true"
       style="overflow:visible"
       id="marker9427"
       refX="0"
       refY="0"
       orient="auto"
       inkscape:stockid="DotM">
      <path
         inkscape:connector-curvature="0"
         transform="matrix(0.4,0,0,0.4,2.96,0.4)"
         style="fill:#000000;fill-opacity:1;fill-rule:evenodd;stroke:#000000;stroke-width:1pt;stroke-opacity:1"
         d="m -2.5,-1 c 0,2.76 -2.24,5 -5,5 -2.76,0 -5,-2.24 -5,-5 0,-2.76 2.24,-5 5,-5 2.76,0 5,2.24 5,5 z"
         id="path9429" />
    </marker>
    <marker
       inkscape:isstock="true"
       style="overflow:visible"
       id="marker9333"
       refX="0"
       refY="0"
       orient="auto"
       inkscape:stockid="DotM">
      <path
         inkscape:connector-curvature="0"
         transform="matrix(0.4,0,0,0.4,2.96,0.4)"
         style="fill:#000000;fill-opacity:1;fill-rule:evenodd;stroke:#000000;stroke-width:1pt;stroke-opacity:1"
         d="m -2.5,-1 c 0,2.76 -2.24,5 -5,5 -2.76,0 -5,-2.24 -5,-5 0,-2.76 2.24,-5 5,-5 2.76,0 5,2.24 5,5 z"
         id="path9335" />
    </marker>
    <marker
       inkscape:isstock="true"
       style="overflow:visible"
       id="marker9527"
       refX="0"
       refY="0"
       orient="auto"
       inkscape:stockid="DotM">
      <path
         inkscape:connector-curvature="0"
         transform="matrix(0.4,0,0,0.4,2.96,0.4)"
         style="fill:#000000;fill-opacity:1;fill-rule:evenodd;stroke:#000000;stroke-width:1pt;stroke-opacity:1"
         d="m -2.5,-1 c 0,2.76 -2.24,5 -5,5 -2.76,0 -5,-2.24 -5,-5 0,-2.76 2.24,-5 5,-5 2.76,0 5,2.24 5,5 z"
         id="path9529" />
    </marker>
    <marker
       inkscape:stockid="Arrow1Mend"
       orient="auto"
       refY="0"
       refX="0"
       id="marker9045"
       style="overflow:visible"
       inkscape:isstock="true">
      <path
         id="path9047"
         d="M 0,0 5,-5 -12.5,0 5,5 0,0 Z"
         style="fill:#000000;fill-opacity:1;fill-rule:evenodd;stroke:#000000;stroke-width:1pt;stroke-opacity:1"
         transform="matrix(-0.4,0,0,-0.4,-4,0)"
         inkscape:connector-curvature="0" />
    </marker>
    <marker
       inkscape:stockid="Arrow1Mend"
       orient="auto"
       refY="0"
       refX="0"
       id="marker8911"
       style="overflow:visible"
       inkscape:isstock="true">
      <path
         id="path8913"
         d="M 0,0 5,-5 -12.5,0 5,5 0,0 Z"
         style="fill:#000000;fill-opacity:1;fill-rule:evenodd;stroke:#000000;stroke-width:1pt;stroke-opacity:1"
         transform="matrix(-0.4,0,0,-0.4,-4,0)"
         inkscape:connector-curvature="0" />
    </marker>
    <marker
       inkscape:isstock="true"
       style="overflow:visible"
       id="marker8703"
       refX="0"
       refY="0"
       orient="auto"
       inkscape:stockid="Arrow1Mend">
      <path
         inkscape:connector-curvature="0"
         transform="matrix(-0.4,0,0,-0.4,-4,0)"
         style="fill:#000000;fill-opacity:1;fill-rule:evenodd;stroke:#000000;stroke-width:1pt;stroke-opacity:1"
         d="M 0,0 5,-5 -12.5,0 5,5 0,0 Z"
         id="path8705" />
    </marker>
    <marker
       inkscape:stockid="Arrow1Mend"
       orient="auto"
       refY="0"
       refX="0"
       id="marker8975"
       style="overflow:visible"
       inkscape:isstock="true">
      <path
         id="path8977"
         d="M 0,0 5,-5 -12.5,0 5,5 0,0 Z"
         style="fill:#000000;fill-opacity:1;fill-rule:evenodd;stroke:#000000;stroke-width:1pt;stroke-opacity:1"
         transform="matrix(-0.4,0,0,-0.4,-4,0)"
         inkscape:connector-curvature="0" />
    </marker>
    <marker
       inkscape:isstock="true"
       style="overflow:visible"
       id="marker8789"
       refX="0"
       refY="0"
       orient="auto"
       inkscape:stockid="Arrow1Mend">
      <path
         inkscape:connector-curvature="0"
         transform="matrix(-0.4,0,0,-0.4,-4,0)"
         style="fill:#000000;fill-opacity:1;fill-rule:evenodd;stroke:#000000;stroke-width:1pt;stroke-opacity:1"
         d="M 0,0 5,-5 -12.5,0 5,5 0,0 Z"
         id="path8791" />
    </marker>
    <marker
       inkscape:isstock="true"
       style="overflow:visible"
       id="marker8743"
       refX="0"
       refY="0"
       orient="auto"
       inkscape:stockid="Arrow1Mend">
      <path
         inkscape:connector-curvature="0"
         transform="matrix(-0.4,0,0,-0.4,-4,0)"
         style="fill:#000000;fill-opacity:1;fill-rule:evenodd;stroke:#000000;stroke-width:1pt;stroke-opacity:1"
         d="M 0,0 5,-5 -12.5,0 5,5 0,0 Z"
         id="path8745" />
    </marker>
  </defs>
  <sodipodi:namedview
     id="base"
     pagecolor="#ffffff"
     bordercolor="#666666"
     borderopacity="1.0"
     inkscape:pageopacity="0.0"
     inkscape:pageshadow="2"
     inkscape:zoom="1.979899"
     inkscape:cx="313.74847"
     inkscape:cy="263.45909"
     inkscape:document-units="px"
     inkscape:current-layer="layer1"
     showgrid="false"
     inkscape:window-width="1920"
     inkscape:window-height="1056"
     inkscape:window-x="0"
     inkscape:window-y="24"
     inkscape:window-maximized="1"
     fit-margin-top="0"
     fit-margin-left="0"
     fit-margin-right="0"
     fit-margin-bottom="0" />
  <metadata
     id="metadata4416">
    <rdf:RDF>
      <cc:Work
         rdf:about="">
        <dc:format>image/svg+xml</dc:format>
        <dc:type
           rdf:resource="http://purl.org/dc/dcmitype/StillImage" />
        <dc:title></dc:title>
      </cc:Work>
    </rdf:RDF>
  </metadata>
  <g
     inkscape:label="Layer 1"
     inkscape:groupmode="layer"
     id="layer1"
     transform="translate(-1.5203051,-59.858504)">
    <rect
       style="fill:none;fill-opacity:0.19607843;stroke:#c75e51;stroke-width:1.3168236;stroke-miterlimit:4;stroke-dasharray:none;stroke-dashoffset:0;stroke-opacity:1"
       id="rect4136-7-3-6-0"
       width="661.17694"
       height="29.33629"
       x="20.199532"
       y="355.3233" />
    <rect
       style="fill:#ba51c7;fill-opacity:0.19607843;stroke:#ba51c7;stroke-width:1.20000005;stroke-miterlimit:4;stroke-dasharray:none;stroke-dashoffset:0;stroke-opacity:1"
       id="rect4451-1-6-2"
       width="65.904182"
       height="16.033401"
       x="286.10529"
       y="307.43152" />
    <flowRoot
       transform="translate(-1211.8358,-214.90996)"
       xml:space="preserve"
       style="font-style:normal;font-weight:normal;font-size:12px;line-height:125%;font-family:Sans;text-align:center;letter-spacing:0px;word-spacing:0px;text-anchor:middle;fill:#000000;fill-opacity:1;stroke:none;stroke-width:1px;stroke-linecap:butt;stroke-linejoin:miter;stroke-opacity:1"
       id="flowRoot4457-9-3-0"><flowRegion
         id="flowRegion4459-4-2-2"><use
           x="0"
           y="0"
           xlink:href="#rect4451-1-6-2"
           id="use4461-78-0-37"
           width="100%"
           height="100%"
           transform="translate(1211.8358,214.90996)" /></flowRegion><flowPara
         id="flowPara4463-4-6-5">scatter(x<flowSpan
   style="font-size:64.99999762%;baseline-shift:sub"
   id="flowSpan8507">i</flowSpan>)</flowPara></flowRoot>    <rect
       style="fill:#ba51c7;fill-opacity:0.19607843;stroke:#ba51c7;stroke-width:1.20000005;stroke-miterlimit:4;stroke-dasharray:none;stroke-dashoffset:0;stroke-opacity:1"
       id="rect4451-1-6-6-3"
       width="98.69117"
       height="15.737121"
       x="380.96771"
       y="308.49036" />
    <flowRoot
       transform="translate(-1581.2643,-243.73645)"
       xml:space="preserve"
       style="font-style:normal;font-weight:normal;font-size:12px;line-height:125%;font-family:Sans;text-align:center;letter-spacing:0px;word-spacing:0px;text-anchor:middle;fill:#000000;fill-opacity:1;stroke:none;stroke-width:1px;stroke-linecap:butt;stroke-linejoin:miter;stroke-opacity:1"
       id="flowRoot4457-9-3-5-6"><flowRegion
         id="flowRegion4459-4-2-6-1"><use
           x="0"
           y="0"
           xlink:href="#rect4451-1-6-6-3"
           id="use4461-78-0-9-2"
           width="100%"
           height="100%"
           transform="translate(1581.2643,243.73645)" /></flowRegion><flowPara
         id="flowPara4463-4-6-3-9">z<flowSpan
   style="font-size:64.99999762%;baseline-shift:sub"
   id="flowSpan4271">i</flowSpan> = f(x=x<flowSpan
   style="font-size:64.99999762%;baseline-shift:sub"
   id="flowSpan8538">i</flowSpan>,y=y)</flowPara></flowRoot>    <rect
       style="fill:#ba51c7;fill-opacity:0.19607843;stroke:#ba51c7;stroke-width:1.20000005;stroke-miterlimit:4;stroke-dasharray:none;stroke-dashoffset:0;stroke-opacity:1"
       id="rect4451-1-6-7-4"
       width="71.50547"
       height="15.977843"
       x="507.1976"
       y="307.6557" />
    <flowRoot
       transform="translate(-1591.2643,-243.73645)"
       xml:space="preserve"
       style="font-style:normal;font-weight:normal;font-size:12px;line-height:125%;font-family:Sans;text-align:center;letter-spacing:0px;word-spacing:0px;text-anchor:middle;fill:#000000;fill-opacity:1;stroke:none;stroke-width:1px;stroke-linecap:butt;stroke-linejoin:miter;stroke-opacity:1"
       id="flowRoot4457-9-3-4-5"><flowRegion
         id="flowRegion4459-4-2-4-0"><use
           x="0"
           y="0"
           xlink:href="#rect4451-1-6-7-4"
           id="use4461-78-0-3-3"
           width="100%"
           height="100%"
           transform="translate(1591.2643,243.73645)" /></flowRegion><flowPara
         id="flowPara4463-4-6-0-6">gather(z<flowSpan
   style="font-size:64.99999762%;baseline-shift:sub"
   id="flowSpan4273">i</flowSpan>)</flowPara></flowRoot>    <rect
       style="fill:#ba51c7;fill-opacity:0.19607843;stroke:#ba51c7;stroke-width:1.20000005;stroke-miterlimit:4;stroke-dasharray:none;stroke-dashoffset:0;stroke-opacity:1"
       id="rect4451-1-6-2-2"
       width="84.817329"
       height="15.854667"
       x="171.9642"
       y="307.59778" />
    <rect
       style="fill:#c76251;fill-opacity:0.19607843;stroke:#c75e51;stroke-width:0.76949739;stroke-miterlimit:4;stroke-dasharray:none;stroke-dashoffset:0;stroke-opacity:1"
       id="rect4136-7-3-6-0-4"
       width="86.458054"
       height="17.373367"
       x="170.01743"
       y="361.18109" />
    <rect
       style="fill:#c76251;fill-opacity:0.19607843;stroke:#c75e51;stroke-width:0.67439842;stroke-miterlimit:4;stroke-dasharray:none;stroke-dashoffset:0;stroke-opacity:1"
       id="rect4136-7-3-6-0-4-3"
       width="66.04705"
       height="17.468466"
       x="284.26816"
       y="362.20459" />
    <flowRoot
       transform="translate(-1146.2349,-955.18887)"
       xml:space="preserve"
       style="font-style:normal;font-weight:normal;font-size:12px;line-height:125%;font-family:Sans;text-align:center;letter-spacing:0px;word-spacing:0px;text-anchor:middle;fill:#000000;fill-opacity:1;stroke:none;stroke-width:1px;stroke-linecap:butt;stroke-linejoin:miter;stroke-opacity:1"
       id="flowRoot4144-9-7-1-9-7-6"><flowRegion
         id="flowRegion4146-2-5-2-3-8-1"><use
           height="100%"
           width="100%"
           x="0"
           y="0"
           xlink:href="#rect4136-7-3-6-0-4-3"
           id="use4148-0-9-9-6-4-0"
           transform="translate(1146.2349,955.18887)" /></flowRegion><flowPara
         id="flowPara8415-0-3">scatter(x)</flowPara></flowRoot>    <rect
       style="fill:#51c77c;fill-opacity:0.19607843;stroke:#51c768;stroke-width:1.20000005;stroke-linejoin:miter;stroke-miterlimit:4;stroke-dasharray:none;stroke-dashoffset:0;stroke-opacity:1"
       id="rect8485"
       width="61.952621"
       height="33.365303"
       x="184.84554"
       y="243.45081" />
    <rect
       style="fill:#c76251;fill-opacity:0.19607843;stroke:#c75e51;stroke-width:0.67439842;stroke-miterlimit:4;stroke-dasharray:none;stroke-dashoffset:0;stroke-opacity:1"
       id="rect4136-7-3-6-0-4-3-9"
       width="66.04705"
       height="17.468466"
       x="512.16797"
       y="360.87006" />
    <flowRoot
       transform="translate(-1435.7897,-1162.3571)"
       xml:space="preserve"
       style="font-style:normal;font-weight:normal;font-size:12px;line-height:125%;font-family:Sans;text-align:center;letter-spacing:0px;word-spacing:0px;text-anchor:middle;fill:#000000;fill-opacity:1;stroke:none;stroke-width:1px;stroke-linecap:butt;stroke-linejoin:miter;stroke-opacity:1"
       id="flowRoot4144-9-7-1-9-7-6-3"><flowRegion
         id="flowRegion4146-2-5-2-3-8-1-7"><use
           height="100%"
           width="100%"
           x="0"
           y="0"
           xlink:href="#rect4136-7-3-6-0-4-3-9"
           id="use4148-0-9-9-6-4-0-4"
           transform="translate(1435.7897,1162.3571)" /></flowRegion><flowPara
         id="flowPara8415-0-3-5">gather(z)</flowPara></flowRoot>    <rect
       style="fill:#c76251;fill-opacity:0.19607843;stroke:#c75e51;stroke-width:0.67439842;stroke-miterlimit:4;stroke-dasharray:none;stroke-dashoffset:0;stroke-opacity:1"
       id="rect4136-7-3-6-0-4-3-2"
       width="66.04705"
       height="17.468466"
       x="606.94104"
       y="360.52692" />
    <flowRoot
       transform="translate(-1435.7897,-1162.3571)"
       xml:space="preserve"
       style="font-style:normal;font-weight:normal;font-size:12px;line-height:125%;font-family:Sans;text-align:center;letter-spacing:0px;word-spacing:0px;text-anchor:middle;fill:#000000;fill-opacity:1;stroke:none;stroke-width:1px;stroke-linecap:butt;stroke-linejoin:miter;stroke-opacity:1"
       id="flowRoot4144-9-7-1-9-7-6-5"><flowRegion
         id="flowRegion4146-2-5-2-3-8-1-4"><use
           height="100%"
           width="100%"
           x="0"
           y="0"
           xlink:href="#rect4136-7-3-6-0-4-3-2"
           id="use4148-0-9-9-6-4-0-7"
           transform="translate(1435.7897,1162.3571)" /></flowRegion><flowPara
         id="flowPara8415-0-3-4">return z</flowPara></flowRoot>    <rect
       style="fill:none;fill-opacity:0.19607843;stroke:#c75e51;stroke-width:1.29999995;stroke-miterlimit:4;stroke-dasharray:none;stroke-dashoffset:0;stroke-opacity:1"
       id="rect4136-7-3-6-0-1"
       width="615.29077"
       height="29.412025"
       x="25.955311"
       y="169.64243" />
    <rect
       style="fill:#ba51c7;fill-opacity:0.19607843;stroke:#ba51c7;stroke-width:1.20000005;stroke-miterlimit:4;stroke-dasharray:none;stroke-dashoffset:0;stroke-opacity:1"
       id="rect4451-1-6-6-3-0"
       width="98.69117"
       height="15.737121"
       x="327.24612"
       y="123.35242" />
    <flowRoot
       transform="translate(-1617.7682,-539.2184)"
       xml:space="preserve"
       style="font-style:normal;font-weight:normal;font-size:12px;line-height:125%;font-family:Sans;text-align:center;letter-spacing:0px;word-spacing:0px;text-anchor:middle;fill:#000000;fill-opacity:1;stroke:none;stroke-width:1px;stroke-linecap:butt;stroke-linejoin:miter;stroke-opacity:1"
       id="flowRoot4457-9-3-5-6-3"><flowRegion
         id="flowRegion4459-4-2-6-1-6"><use
           x="0"
           y="0"
           xlink:href="#rect4451-1-6-6-3-0"
           id="use4461-78-0-9-2-1"
           width="100%"
           height="100%"
           transform="translate(1617.7682,539.2184)" /></flowRegion><flowPara
         id="flowPara4463-4-6-3-9-0">(_,y) = set_y(y)</flowPara></flowRoot>    <rect
       style="fill:#ba51c7;fill-opacity:0.19607843;stroke:#ba51c7;stroke-width:1.20000005;stroke-miterlimit:4;stroke-dasharray:none;stroke-dashoffset:0;stroke-opacity:1"
       id="rect4451-1-6-7-4-2"
       width="71.50547"
       height="15.977843"
       x="457.47601"
       y="122.51776" />
    <rect
       style="fill:#ba51c7;fill-opacity:0.19607843;stroke:#ba51c7;stroke-width:1.3856498;stroke-miterlimit:4;stroke-dasharray:none;stroke-dashoffset:0;stroke-opacity:1"
       id="rect4451-1-6-2-2-4"
       width="114.43118"
       height="15.669017"
       x="174.33543"
       y="122.55267" />
    <rect
       style="fill:#c76251;fill-opacity:0.19607843;stroke:#c75e51;stroke-width:0.88124084;stroke-miterlimit:4;stroke-dasharray:none;stroke-dashoffset:0;stroke-opacity:1"
       id="rect4136-7-3-6-0-4-7"
       width="114.1255"
       height="17.261623"
       x="174.35172"
       y="176.09903" />
    <rect
       style="fill:#51c77c;fill-opacity:0.19607843;stroke:#51c768;stroke-width:1.00431204;stroke-linejoin:miter;stroke-miterlimit:4;stroke-dasharray:none;stroke-dashoffset:0;stroke-opacity:1"
       id="rect8485-4"
       width="75.858139"
       height="16.966248"
       x="266.98972"
       y="68.846161" />
    <rect
       style="fill:#c76251;fill-opacity:0.19607843;stroke:#c75e51;stroke-width:0.67439842;stroke-miterlimit:4;stroke-dasharray:none;stroke-dashoffset:0;stroke-opacity:1"
       id="rect4136-7-3-6-0-4-3-9-4"
       width="66.04705"
       height="17.468466"
       x="460.44635"
       y="175.73212" />
    <rect
       style="fill:#ba51c7;fill-opacity:0.19607843;stroke:#ba51c7;stroke-width:0.68469298;stroke-miterlimit:4;stroke-dasharray:none;stroke-dashoffset:0;stroke-opacity:1"
       id="rect4451-1-6-2-2-4-3"
       width="26.743788"
       height="16.369974"
       x="87.32103"
       y="121.42316" />
    <flowRoot
       xml:space="preserve"
       style="font-style:normal;font-weight:normal;font-size:12px;line-height:125%;font-family:Sans;text-align:center;letter-spacing:0px;word-spacing:0px;text-anchor:middle;fill:#000000;fill-opacity:1;stroke:none;stroke-width:1px;stroke-linecap:butt;stroke-linejoin:miter;stroke-opacity:1"
       id="flowRoot5781"><flowRegion
         id="flowRegion5783"><use
           x="0"
           y="0"
           xlink:href="#rect4451-1-6-2-2-4-3"
           id="use5785"
           width="100%"
           height="100%" /></flowRegion><flowPara
         id="flowPara5787">P<flowSpan
   style="font-size:65%;baseline-shift:sub"
   id="flowSpan11540">i</flowSpan></flowPara></flowRoot>    <flowRoot
       xml:space="preserve"
       style="font-style:normal;font-weight:normal;font-size:12px;line-height:125%;font-family:Sans;text-align:start;letter-spacing:0px;word-spacing:0px;text-anchor:start;fill:#000000;fill-opacity:1;stroke:none;stroke-width:1px;stroke-linecap:butt;stroke-linejoin:miter;stroke-opacity:1"
       id="flowRoot5793"><flowRegion
         id="flowRegion5795"><use
           x="0"
           y="0"
           xlink:href="#rect4136-7-3-6-0-1"
           id="use5797"
           width="100%"
           height="100%" /></flowRegion><flowPara
         id="flowPara5799"> mpi_eval(set_y,'y',y)</flowPara></flowRoot>    <flowRoot
       xml:space="preserve"
       style="font-style:normal;font-weight:normal;font-size:12px;line-height:125%;font-family:Sans;text-align:center;letter-spacing:0px;word-spacing:0px;text-anchor:middle;fill:#000000;fill-opacity:1;stroke:none;stroke-width:1px;stroke-linecap:butt;stroke-linejoin:miter;stroke-opacity:1"
       id="flowRoot5823"><flowRegion
         id="flowRegion5825"><use
           x="0"
           y="0"
           xlink:href="#rect4136-7-3-6-0-4-7"
           id="use5827"
           width="100%"
           height="100%" /></flowRegion><flowPara
         id="flowPara5829">bcast(set_y,'y',y)</flowPara></flowRoot>    <flowRoot
       xml:space="preserve"
       style="font-style:normal;font-weight:normal;font-size:12px;line-height:125%;font-family:Sans;text-align:center;letter-spacing:0px;word-spacing:0px;text-anchor:middle;fill:#000000;fill-opacity:1;stroke:none;stroke-width:1px;stroke-linecap:butt;stroke-linejoin:miter;stroke-opacity:1"
       id="flowRoot5831"><flowRegion
         id="flowRegion5833"><use
           x="0"
           y="0"
           xlink:href="#rect4451-1-6-2-2-4"
           id="use5835"
           width="100%"
           height="100%" /></flowRegion><flowPara
         id="flowPara5837">bcast(set_y,'y',y)</flowPara></flowRoot>    <flowRoot
       xml:space="preserve"
       style="font-style:normal;font-weight:normal;font-size:12px;line-height:125%;font-family:Sans;text-align:center;letter-spacing:0px;word-spacing:0px;text-anchor:middle;fill:#000000;fill-opacity:1;stroke:none;stroke-width:1px;stroke-linecap:butt;stroke-linejoin:miter;stroke-opacity:1"
       id="flowRoot5847"><flowRegion
         id="flowRegion5849"><use
           x="0"
           y="0"
           xlink:href="#rect8485-4"
           id="use5851"
           width="100%"
           height="100%" /></flowRegion><flowPara
         id="flowPara5853">(set_y,'y',y)</flowPara></flowRoot>    <rect
       style="fill:#51c77c;fill-opacity:0.19607843;stroke:#51c768;stroke-width:1.20000005;stroke-linejoin:miter;stroke-miterlimit:4;stroke-dasharray:none;stroke-dashoffset:0;stroke-opacity:1"
       id="rect8485-4-9"
       width="75.491844"
       height="31.752245"
       x="410.21613"
       y="61.770096" />
    <flowRoot
       transform="translate(-266.48756,-68.344005)"
       xml:space="preserve"
       style="font-style:normal;font-weight:normal;font-size:12px;line-height:125%;font-family:Sans;text-align:center;letter-spacing:0px;word-spacing:0px;text-anchor:middle;fill:#000000;fill-opacity:1;stroke:none;stroke-width:1px;stroke-linecap:butt;stroke-linejoin:miter;stroke-opacity:1"
       id="flowRoot5847-2"><flowRegion
         id="flowRegion5849-0"><use
           x="0"
           y="0"
           xlink:href="#rect8485-4-9"
           id="use5851-6"
           width="100%"
           height="100%"
           transform="translate(266.48756,68.344005)" /></flowRegion><flowPara
         id="flowPara5853-8">p['y']=y</flowPara><flowPara
         id="flowPara6152">(set_y,'y',y)</flowPara></flowRoot>    <flowRoot
       xml:space="preserve"
       style="font-style:normal;font-weight:normal;font-size:12px;line-height:125%;font-family:Sans;text-align:center;letter-spacing:0px;word-spacing:0px;text-anchor:middle;fill:#000000;fill-opacity:1;stroke:none;stroke-width:1px;stroke-linecap:butt;stroke-linejoin:miter;stroke-opacity:1"
       id="flowRoot6188"><flowRegion
         id="flowRegion6190"><use
           x="0"
           y="0"
           xlink:href="#rect4136-7-3-6-0-4-3-9-4"
           id="use6192"
           width="100%"
           height="100%" /></flowRegion><flowPara
         id="flowPara6194">gather(_)</flowPara></flowRoot>    <flowRoot
       xml:space="preserve"
       style="font-style:normal;font-weight:normal;font-size:12px;line-height:125%;font-family:Sans;text-align:center;letter-spacing:0px;word-spacing:0px;text-anchor:middle;fill:#000000;fill-opacity:1;stroke:none;stroke-width:1px;stroke-linecap:butt;stroke-linejoin:miter;stroke-opacity:1"
       id="flowRoot6196"><flowRegion
         id="flowRegion6198"><use
           x="0"
           y="0"
           xlink:href="#rect4451-1-6-7-4-2"
           id="use6200"
           width="100%"
           height="100%" /></flowRegion><flowPara
         id="flowPara6202">gather(_)</flowPara></flowRoot>    <rect
       style="fill:#c76251;fill-opacity:0.19607843;stroke:#c75e51;stroke-width:0.67439842;stroke-miterlimit:4;stroke-dasharray:none;stroke-dashoffset:0;stroke-opacity:1"
       id="rect4136-7-3-6-0-4-3-9-4-6"
       width="66.04705"
       height="17.468466"
       x="556.3396"
       y="176.43231" />
    <flowRoot
       transform="translate(-460.10915,-175.39492)"
       xml:space="preserve"
       style="font-style:normal;font-weight:normal;font-size:12px;line-height:125%;font-family:Sans;text-align:center;letter-spacing:0px;word-spacing:0px;text-anchor:middle;fill:#000000;fill-opacity:1;stroke:none;stroke-width:1px;stroke-linecap:butt;stroke-linejoin:miter;stroke-opacity:1"
       id="flowRoot6188-6"><flowRegion
         id="flowRegion6190-4"><use
           height="100%"
           width="100%"
           x="0"
           y="0"
           xlink:href="#rect4136-7-3-6-0-4-3-9-4-6"
           id="use6192-9"
           transform="translate(460.10915,175.39492)" /></flowRegion><flowPara
         id="flowPara6194-5">return</flowPara></flowRoot>    <path
       style="fill:none;fill-rule:evenodd;stroke:#000000;stroke-width:1;stroke-linecap:butt;stroke-linejoin:miter;stroke-miterlimit:4;stroke-dasharray:8, 2, 1, 2;stroke-dashoffset:0;stroke-opacity:1;marker-end:url(#marker6721)"
       d="m 114.06482,129.68775 60.27061,0.35881"
       id="path6231"
       inkscape:connector-type="polyline"
       inkscape:connector-curvature="0"
       inkscape:connection-start="#rect4451-1-6-2-2-4-3"
       inkscape:connection-end="#rect4451-1-6-2-2-4" />
    <path
       style="fill:none;fill-rule:evenodd;stroke:#000000;stroke-width:1px;stroke-linecap:butt;stroke-linejoin:miter;stroke-opacity:1;marker-end:url(#marker6621)"
       d="m 288.76662,130.7161 38.4795,0.2212"
       id="path6233"
       inkscape:connector-type="polyline"
       inkscape:connector-curvature="0"
       inkscape:connection-start="#rect4451-1-6-2-2-4"
       inkscape:connection-end="#rect4451-1-6-6-3-0" />
    <path
       style="fill:none;fill-rule:evenodd;stroke:#000000;stroke-width:1px;stroke-linecap:butt;stroke-linejoin:miter;stroke-opacity:1;marker-end:url(#marker6927)"
       d="m 425.93729,130.91878 31.53872,-0.19314"
       id="path6235"
       inkscape:connector-type="polyline"
       inkscape:connector-curvature="0"
       inkscape:connection-start="#rect4451-1-6-6-3-0"
       inkscape:connection-end="#rect4451-1-6-7-4-2" />
    <path
       style="fill:none;fill-rule:evenodd;stroke:#000000;stroke-width:1px;stroke-linecap:butt;stroke-linejoin:miter;stroke-opacity:1;marker-end:url(#marker7559)"
       d="m 231.43616,176.09903 0.0952,-37.87734"
       id="path6237"
       inkscape:connector-type="polyline"
       inkscape:connector-curvature="0"
       inkscape:connection-start="#rect4136-7-3-6-0-4-7"
       inkscape:connection-end="#rect4451-1-6-2-2-4" />
    <path
       style="fill:none;fill-rule:evenodd;stroke:#000000;stroke-width:1px;stroke-linecap:butt;stroke-linejoin:miter;stroke-opacity:1;marker-end:url(#marker7423)"
       d="M 242.38448,122.55267 293.18843,85.812408"
       id="path6239"
       inkscape:connector-type="polyline"
       inkscape:connector-curvature="0"
       inkscape:connection-start="#rect4451-1-6-2-2-4"
       inkscape:connection-end="#rect8485-4" />
    <path
       style="fill:none;fill-rule:evenodd;stroke:#000000;stroke-width:1px;stroke-linecap:butt;stroke-linejoin:miter;stroke-opacity:1;marker-end:url(#marker7293)"
       d="m 316.20086,85.812408 49.92611,37.540012"
       id="path6241"
       inkscape:connector-type="polyline"
       inkscape:connector-curvature="0"
       inkscape:connection-start="#rect8485-4"
       inkscape:connection-end="#rect4451-1-6-6-3-0" />
    <path
       style="fill:none;fill-rule:evenodd;stroke:#000000;stroke-width:1px;stroke-linecap:butt;stroke-linejoin:miter;stroke-opacity:1;marker-end:url(#marker7169)"
       d="M 387.07392,123.35242 426.81246,93.522341"
       id="path6243"
       inkscape:connector-type="polyline"
       inkscape:connector-curvature="0"
       inkscape:connection-start="#rect4451-1-6-6-3-0"
       inkscape:connection-end="#rect8485-4-9" />
    <path
       style="fill:none;fill-rule:evenodd;stroke:#000000;stroke-width:1px;stroke-linecap:butt;stroke-linejoin:miter;stroke-opacity:1;marker-end:url(#DotM)"
       d="m 461.55746,93.522341 24.83003,28.995419"
       id="path6245"
       inkscape:connector-type="polyline"
       inkscape:connector-curvature="0"
       inkscape:connection-start="#rect8485-4-9"
       inkscape:connection-end="#rect4451-1-6-7-4-2" />
    <path
       style="fill:none;fill-rule:evenodd;stroke:#000000;stroke-width:1;stroke-linecap:butt;stroke-linejoin:miter;stroke-miterlimit:4;stroke-dasharray:8, 2, 1, 2;stroke-dashoffset:0;stroke-opacity:1;marker-end:url(#marker6821)"
       d="m 288.47722,184.67247 171.96913,-0.17292"
       id="path6247"
       inkscape:connector-type="polyline"
       inkscape:connector-curvature="0"
       inkscape:connection-start="#rect4136-7-3-6-0-4-7"
       inkscape:connection-end="#rect4136-7-3-6-0-4-3-9-4" />
    <path
       style="fill:none;fill-rule:evenodd;stroke:#000000;stroke-width:1px;stroke-linecap:butt;stroke-linejoin:miter;stroke-opacity:1;marker-end:url(#Arrow1Mend)"
       d="m 526.4934,184.70748 29.8462,0.21793"
       id="path6249"
       inkscape:connector-type="polyline"
       inkscape:connector-curvature="0"
       inkscape:connection-start="#rect4136-7-3-6-0-4-3-9-4"
       inkscape:connection-end="#rect4136-7-3-6-0-4-3-9-4-6" />
    <path
       style="fill:none;fill-rule:evenodd;stroke:#000000;stroke-width:1px;stroke-linecap:butt;stroke-linejoin:miter;stroke-opacity:1;marker-end:url(#marker7701)"
       d="m 493.26445,138.4956 0.1664,37.23652"
       id="path7045"
       inkscape:connector-type="polyline"
       inkscape:connector-curvature="0"
       inkscape:connection-start="#rect4451-1-6-7-4-2"
       inkscape:connection-end="#rect4136-7-3-6-0-4-3-9-4" />
    <flowRoot
       xml:space="preserve"
       style="font-style:normal;font-weight:normal;font-size:12px;line-height:125%;font-family:Sans;letter-spacing:0px;word-spacing:0px;fill:#000000;fill-opacity:1;stroke:none;stroke-width:1px;stroke-linecap:butt;stroke-linejoin:miter;stroke-opacity:1"
       id="flowRoot7883"><flowRegion
         id="flowRegion7885"><use
           x="0"
           y="0"
           xlink:href="#rect4136-7-3-6-0"
           id="use7887"
           width="100%"
           height="100%" /></flowRegion><flowPara
         id="flowPara7889"> mpi_eval(f,x,'y')</flowPara></flowRoot>    <flowRoot
       xml:space="preserve"
       style="font-style:normal;font-weight:normal;font-size:12px;line-height:125%;font-family:Sans;text-align:center;letter-spacing:0px;word-spacing:0px;text-anchor:middle;fill:#000000;fill-opacity:1;stroke:none;stroke-width:1px;stroke-linecap:butt;stroke-linejoin:miter;stroke-opacity:1"
       id="flowRoot7913"><flowRegion
         id="flowRegion7915"><use
           x="0"
           y="0"
           xlink:href="#rect4136-7-3-6-0-4"
           id="use7917"
           width="100%"
           height="100%" /></flowRegion><flowPara
         id="flowPara7919">bcast(f,'y')</flowPara></flowRoot>    <flowRoot
       xml:space="preserve"
       style="font-style:normal;font-weight:normal;font-size:12px;line-height:125%;font-family:Sans;text-align:center;letter-spacing:0px;word-spacing:0px;text-anchor:middle;fill:#000000;fill-opacity:1;stroke:none;stroke-width:1px;stroke-linecap:butt;stroke-linejoin:miter;stroke-opacity:1"
       id="flowRoot7921"><flowRegion
         id="flowRegion7923"><use
           x="0"
           y="0"
           xlink:href="#rect4451-1-6-2-2"
           id="use7925"
           width="100%"
           height="100%" /></flowRegion><flowPara
         id="flowPara7927">bcast(f,'y')</flowPara></flowRoot>    <flowRoot
       xml:space="preserve"
       style="font-style:normal;font-weight:normal;font-size:12px;line-height:125%;font-family:Sans;text-align:center;letter-spacing:0px;word-spacing:0px;text-anchor:middle;fill:#000000;fill-opacity:1;stroke:none;stroke-width:1px;stroke-linecap:butt;stroke-linejoin:miter;stroke-opacity:1"
       id="flowRoot7935"><flowRegion
         id="flowRegion7937"><use
           x="0"
           y="0"
           xlink:href="#rect8485"
           id="use7939"
           width="100%"
           height="100%" /></flowRegion><flowPara
         id="flowPara7941">p['y']=y</flowPara><flowPara
         id="flowPara8010">(f,'y')</flowPara></flowRoot>    <rect
       style="fill:#51c77c;fill-opacity:0.19607843;stroke:#51c768;stroke-width:1.20000005;stroke-linejoin:miter;stroke-miterlimit:4;stroke-dasharray:none;stroke-dashoffset:0;stroke-opacity:1"
       id="rect8485-8"
       width="61.952621"
       height="33.365303"
       x="318.19128"
       y="244.20728" />
    <flowRoot
       transform="translate(-184.24554,-284.85081)"
       xml:space="preserve"
       style="font-style:normal;font-weight:normal;font-size:12px;line-height:125%;font-family:Sans;text-align:center;letter-spacing:0px;word-spacing:0px;text-anchor:middle;fill:#000000;fill-opacity:1;stroke:none;stroke-width:1px;stroke-linecap:butt;stroke-linejoin:miter;stroke-opacity:1"
       id="flowRoot7935-7"><flowRegion
         id="flowRegion7937-1"><use
           x="0"
           y="0"
           xlink:href="#rect8485-8"
           id="use7939-7"
           width="100%"
           height="100%"
           transform="translate(184.24554,284.85081)" /></flowRegion><flowPara
         id="flowPara7941-2">p['y']=y</flowPara><flowPara
         id="flowPara8012">(f,'y',x<flowSpan
   style="font-size:64.99999762%;baseline-shift:sub"
   id="flowSpan7970">i</flowSpan>)</flowPara></flowRoot>    <rect
       style="fill:#51c77c;fill-opacity:0.19607843;stroke:#51c768;stroke-width:1.20000005;stroke-linejoin:miter;stroke-miterlimit:4;stroke-dasharray:none;stroke-dashoffset:0;stroke-opacity:1"
       id="rect8485-7"
       width="61.952621"
       height="33.365303"
       x="565.05432"
       y="60.458488" />
    <flowRoot
       transform="translate(-184.24554,-284.85081)"
       xml:space="preserve"
       style="font-style:normal;font-weight:normal;font-size:12px;line-height:125%;font-family:Sans;text-align:center;letter-spacing:0px;word-spacing:0px;text-anchor:middle;fill:#000000;fill-opacity:1;stroke:none;stroke-width:1px;stroke-linecap:butt;stroke-linejoin:miter;stroke-opacity:1"
       id="flowRoot7935-2"><flowRegion
         id="flowRegion7937-2"><use
           x="0"
           y="0"
           xlink:href="#rect8485-7"
           id="use7939-6"
           width="100%"
           height="100%"
           transform="translate(184.24554,284.85081)" /></flowRegion><flowPara
         id="flowPara7941-1">p['y']=y </flowPara><flowPara
         id="flowPara8008">()</flowPara></flowRoot>    <rect
       style="fill:#51c77c;fill-opacity:0.19607843;stroke:#51c768;stroke-width:1.20000005;stroke-linejoin:miter;stroke-miterlimit:4;stroke-dasharray:none;stroke-dashoffset:0;stroke-opacity:1"
       id="rect8485-8-0"
       width="61.952621"
       height="33.365303"
       x="450.84616"
       y="242.65143" />
    <flowRoot
       transform="translate(-501.83682,-570.45809)"
       xml:space="preserve"
       style="font-style:normal;font-weight:normal;font-size:12px;line-height:125%;font-family:Sans;text-align:center;letter-spacing:0px;word-spacing:0px;text-anchor:middle;fill:#000000;fill-opacity:1;stroke:none;stroke-width:1px;stroke-linecap:butt;stroke-linejoin:miter;stroke-opacity:1"
       id="flowRoot7935-7-6"><flowRegion
         id="flowRegion7937-1-1"><use
           x="0"
           y="0"
           xlink:href="#rect8485-8-0"
           id="use7939-7-5"
           width="100%"
           height="100%"
           transform="translate(501.83682,570.45809)" /></flowRegion><flowPara
         id="flowPara7941-2-9">p['y']=y</flowPara><flowPara
         id="flowPara8012-4">(f,'y',x<flowSpan
   style="font-size:64.99999762%;baseline-shift:sub"
   id="flowSpan7970-9">i</flowSpan>,z<flowSpan
   style="font-size:64.99999762%;baseline-shift:sub"
   id="flowSpan8048">i</flowSpan>)</flowPara></flowRoot>    <rect
       style="fill:#51c77c;fill-opacity:0.19607843;stroke:#51c768;stroke-width:1.20000005;stroke-linejoin:miter;stroke-miterlimit:4;stroke-dasharray:none;stroke-dashoffset:0;stroke-opacity:1"
       id="rect8485-7-0"
       width="61.952621"
       height="33.365303"
       x="582.18628"
       y="241.09561" />
    <flowRoot
       transform="translate(-748.69986,-344.7093)"
       xml:space="preserve"
       style="font-style:normal;font-weight:normal;font-size:12px;line-height:125%;font-family:Sans;text-align:center;letter-spacing:0px;word-spacing:0px;text-anchor:middle;fill:#000000;fill-opacity:1;stroke:none;stroke-width:1px;stroke-linecap:butt;stroke-linejoin:miter;stroke-opacity:1"
       id="flowRoot7935-2-9"><flowRegion
         id="flowRegion7937-2-1"><use
           x="0"
           y="0"
           xlink:href="#rect8485-7-0"
           id="use7939-6-7"
           width="100%"
           height="100%"
           transform="translate(748.69986,344.7093)" /></flowRegion><flowPara
         id="flowPara7941-1-7">p['y']=y </flowPara><flowPara
         id="flowPara8008-1">()</flowPara></flowRoot>    <path
       style="fill:none;fill-rule:evenodd;stroke:#000000;stroke-width:1px;stroke-linecap:butt;stroke-linejoin:miter;stroke-opacity:1;marker-end:url(#marker8768)"
       d="m 256.47548,372.31278 27.79268,0.2861"
       id="path8080"
       inkscape:connector-type="polyline"
       inkscape:connector-curvature="0"
       inkscape:connection-start="#rect4136-7-3-6-0-4"
       inkscape:connection-end="#rect4136-7-3-6-0-4-3" />
    <path
       style="fill:none;fill-rule:evenodd;stroke:#000000;stroke-width:1;stroke-linecap:butt;stroke-linejoin:miter;stroke-miterlimit:4;stroke-dasharray:8, 2, 1, 2;stroke-dashoffset:0;stroke-opacity:1;marker-end:url(#marker8596)"
       d="m 350.31521,372.74544 161.85276,-0.94777"
       id="path8082"
       inkscape:connector-type="polyline"
       inkscape:connector-curvature="0"
       inkscape:connection-start="#rect4136-7-3-6-0-4-3"
       inkscape:connection-end="#rect4136-7-3-6-0-4-3-9" />
    <path
       style="fill:none;fill-rule:evenodd;stroke:#000000;stroke-width:1px;stroke-linecap:butt;stroke-linejoin:miter;stroke-opacity:1;marker-end:url(#marker8430)"
       d="m 578.21502,371.48472 28.72602,-0.104"
       id="path8084"
       inkscape:connector-type="polyline"
       inkscape:connector-curvature="0"
       inkscape:connection-start="#rect4136-7-3-6-0-4-3-9"
       inkscape:connection-end="#rect4136-7-3-6-0-4-3-2" />
    <path
       style="fill:none;fill-rule:evenodd;stroke:#000000;stroke-width:1px;stroke-linecap:butt;stroke-linejoin:miter;stroke-opacity:1;marker-end:url(#marker10372)"
       d="m 213.46797,361.18109 0.78204,-37.72864"
       id="path8086"
       inkscape:connector-type="polyline"
       inkscape:connector-curvature="0"
       inkscape:connection-start="#rect4136-7-3-6-0-4"
       inkscape:connection-end="#rect4451-1-6-2-2" />
    <path
       style="fill:none;fill-rule:evenodd;stroke:#000000;stroke-width:1px;stroke-linecap:butt;stroke-linejoin:miter;stroke-opacity:1;marker-end:url(#marker10152)"
       d="m 214.63255,307.59778 0.80522,-30.78167"
       id="path8088"
       inkscape:connector-type="polyline"
       inkscape:connector-curvature="0"
       inkscape:connection-start="#rect4451-1-6-2-2"
       inkscape:connection-end="#rect8485" />
    <path
       style="fill:none;fill-rule:evenodd;stroke:#000000;stroke-width:1px;stroke-linecap:butt;stroke-linejoin:miter;stroke-opacity:1;marker-end:url(#marker9938)"
       d="m 317.63324,362.20459 1.23269,-38.73967"
       id="path8090"
       inkscape:connector-type="polyline"
       inkscape:connector-curvature="0"
       inkscape:connection-start="#rect4136-7-3-6-0-4-3"
       inkscape:connection-end="#rect4451-1-6-2" />
    <path
       style="fill:none;fill-rule:evenodd;stroke:#000000;stroke-width:1px;stroke-linecap:butt;stroke-linejoin:miter;stroke-opacity:1;marker-end:url(#marker9730)"
       d="m 324.5855,307.43152 16.47888,-29.85894"
       id="path8092"
       inkscape:connector-type="polyline"
       inkscape:connector-curvature="0"
       inkscape:connection-start="#rect4451-1-6-2"
       inkscape:connection-end="#rect8485-8" />
    <path
       style="fill:none;fill-rule:evenodd;stroke:#000000;stroke-width:1px;stroke-linecap:butt;stroke-linejoin:miter;stroke-opacity:1;marker-end:url(#marker9528)"
       d="m 370.64688,277.57258 45.22968,30.91778"
       id="path8094"
       inkscape:connector-type="polyline"
       inkscape:connector-curvature="0"
       inkscape:connection-start="#rect8485-8"
       inkscape:connection-end="#rect4451-1-6-6-3" />
    <path
       style="fill:none;fill-rule:evenodd;stroke:#000000;stroke-width:1px;stroke-linecap:butt;stroke-linejoin:miter;stroke-opacity:1;marker-end:url(#marker9332)"
       d="m 439.22733,308.49036 29.33265,-32.47363"
       id="path8096"
       inkscape:connector-type="polyline"
       inkscape:connector-curvature="0"
       inkscape:connection-start="#rect4451-1-6-6-3"
       inkscape:connection-end="#rect8485-8-0" />
    <path
       style="fill:none;fill-rule:evenodd;stroke:#000000;stroke-width:1px;stroke-linecap:butt;stroke-linejoin:miter;stroke-opacity:1;marker-end:url(#marker9142)"
       d="m 497.76121,276.01673 34.34566,31.63897"
       id="path8098"
       inkscape:connector-type="polyline"
       inkscape:connector-curvature="0"
       inkscape:connection-start="#rect8485-8-0"
       inkscape:connection-end="#rect4451-1-6-7-4" />
    <path
       style="fill:none;fill-rule:evenodd;stroke:#000000;stroke-width:1px;stroke-linecap:butt;stroke-linejoin:miter;stroke-opacity:1;marker-end:url(#marker10598)"
       d="m 543.19908,323.63354 1.54658,37.23652"
       id="path8100"
       inkscape:connector-type="polyline"
       inkscape:connector-curvature="0"
       inkscape:connection-start="#rect4451-1-6-7-4"
       inkscape:connection-end="#rect4136-7-3-6-0-4-3-9" />
    <path
       style="fill:none;fill-rule:evenodd;stroke:#000000;stroke-width:1;stroke-linecap:butt;stroke-linejoin:miter;stroke-miterlimit:4;stroke-dasharray:8, 2, 1, 2;stroke-dashoffset:0;stroke-opacity:1;marker-end:url(#marker8270)"
       d="m 256.78153,317.49396 29.32376,-0.0215"
       id="path8102"
       inkscape:connector-type="polyline"
       inkscape:connector-curvature="0"
       inkscape:connection-start="#rect4451-1-6-2-2"
       inkscape:connection-end="#rect4451-1-6-2" />
    <path
       style="fill:none;fill-rule:evenodd;stroke:#000000;stroke-width:1px;stroke-linecap:butt;stroke-linejoin:miter;stroke-opacity:1;marker-end:url(#marker8116)"
       d="m 352.00947,317.71795 28.95824,0.23704"
       id="path8104"
       inkscape:connector-type="polyline"
       inkscape:connector-curvature="0"
       inkscape:connection-start="#rect4451-1-6-2"
       inkscape:connection-end="#rect4451-1-6-6-3" />
    <path
       style="fill:none;fill-rule:evenodd;stroke:#000000;stroke-width:1px;stroke-linecap:butt;stroke-linejoin:miter;stroke-opacity:1;marker-end:url(#marker8946)"
       d="m 479.65888,318.04599 27.53872,-0.17464"
       id="path8108"
       inkscape:connector-type="polyline"
       inkscape:connector-curvature="0"
       inkscape:connection-start="#rect4451-1-6-6-3"
       inkscape:connection-end="#rect4451-1-6-7-4" />
    <path
       style="fill:none;fill-rule:evenodd;stroke:#000000;stroke-width:1px;stroke-linecap:butt;stroke-linejoin:miter;stroke-opacity:1;marker-end:url(#marker10862)"
       d="m 641.44687,184.13609 10.10152,0 0,29.7995 -649.5280849,0 0,156.57365 18.6878219,0"
       id="path11262"
       inkscape:connector-curvature="0" />
    <path
       style="fill:none;fill-rule:evenodd;stroke:#000000;stroke-width:1;stroke-linecap:butt;stroke-linejoin:miter;stroke-miterlimit:4;stroke-dasharray:8, 2, 1, 2;stroke-dashoffset:0;stroke-opacity:1;marker-end:url(#marker11284)"
       d="m 528.81486,130.09293 134.35029,0 0,96.46957 -525.7844,0 0,88.89342 34.34518,0"
       id="path11276"
       inkscape:connector-curvature="0" />
  </g>
</svg>
